emac_pn_01	opt
emac_pn_06	opt
emac_pn_08	opt
emac_pn_11	opt
emac_pn_14	opt
emac_pn_17	opt
emac_pn_18	opt
emac_pn_20	opt
emac_pn_24	opt
emac_pn_25	opt
emac_va_15	opt
emac_va_16	opt
emac_va_22	opt
emac_va_24	opt
emac_va_25	opt
emac_va_26	opt
emac_va_27	opt
emac_va_32	opt
emac_va_35	opt
emac_va_38	opt
