emac_va_01	va
emac_va_02	va
emac_va_03	va
emac_va_04	va
emac_va_06	va
emac_va_07	va
emac_va_09	va
emac_va_10	va
emac_va_11	va
emac_va_13	va
emac_va_14	va
emac_va_15	va
emac_va_16	va
emac_va_18	va
emac_va_19	va
emac_va_20	va
emac_va_21	va
emac_va_22	va
emac_va_23	va
emac_va_24	va
emac_va_25	va
emac_va_26	va
emac_va_27	va
emac_va_28	va
emac_va_29	va
emac_va_30	va
emac_va_31	va
emac_va_32	va
emac_va_33	va
emac_va_34	va
emac_va_35	va
emac_va_36	va
emac_va_37	va
emac_va_38	va
emac_va_39	va
emac_pn_01	pn
emac_pn_02	pn
emac_pn_04	pn
emac_pn_05	pn
emac_pn_06	pn
emac_pn_07	pn
emac_pn_08	pn
emac_pn_09	pn
emac_pn_10	pn
emac_pn_11	pn
emac_pn_12	pn
emac_pn_13	pn
emac_pn_14	pn
emac_pn_16	pn
emac_pn_17	pn
emac_pn_18	pn
emac_pn_19	pn
emac_pn_20	pn
emac_pn_21	pn
emac_pn_24	pn
emac_pn_25	pn
